…
    ## [1] "drat ~ hp + cyl"   "qsec ~ am + mpg"   "wt ~ carb + vs"   
    ## [4] "am ~ disp + carb"  "drat ~ gear + mpg" "vs ~ hp + cyl"

``` r
# Iterate across the formulas and tidy the output with formula as name
models <- map(formulas, ~ lm(., data = mtcars)) %>% 
  set_names(formulas) %>% 
  map_dfr(tidy, .id = ".x")

# Output
models
```

    ## # A tibble: 30 × 6
    ##    .x               term        estimate std.error statistic  p.value
    ##    <chr>            <chr>          <dbl>     <dbl>     <dbl>    <dbl>
    ##  1 drat ~ hp + cyl  (Intercept)  5.07      0.257      19.8   2.30e-18
    ##  2 drat ~ hp + cyl  hp           0.00340   0.00176     1.94  6.26e- 2
    ##  3 drat ~ hp + cyl  cyl         -0.318     0.0674     -4.72  5.53e- 5
    ##  4 qsec ~ am + mpg  (Intercept) 13.8       0.853      16.1   5.10e-16
    ##  5 qsec ~ am + mpg  am          -2.69      0.566      -4.76  5.00e- 5
    ##  6 qsec ~ am + mpg  mpg          0.258     0.0468      5.50  6.27e- 6
    ##  7 wt ~ carb + vs   (Intercept)  3.33      0.450       7.39  3.86e- 8
    ##  8 wt ~ carb + vs   carb         0.100     0.112       0.890 3.81e- 1
    ##  9 wt ~ carb + vs   vs          -0.895     0.360      -2.49  1.90e- 2
    ## 10 am ~ disp + carb (Intercept)  0.782     0.163       4.80  4.47e- 5
    ## # … with 20 more rows
…
